The Tidymodels Framework
…
---

```r
model_fit %>% pull_workflow_fit()  %>% tidy()
```

```
## # A tibble: 150 x 5
##    term                         estimate    std.error statistic  p.value
##    <chr>                           <dbl>        <dbl>     <dbl>    <dbl>
##  1 (Intercept)                   2.93    1694.          0.00173 9.99e- 1
##  2 dep_time                     -0.00155    0.0000999 -15.6     1.36e-54
##  3 air_time                     -0.0426     0.00406   -10.5     1.04e-25
##  4 distance                      0.0159     0.0108      1.47    1.43e- 1
##  5 date_USChristmasDay           1.15       1.12        1.02    3.07e- 1
##  6 date_USColumbusDay           14.5      543.          0.0267  9.79e- 1
##  7 date_USCPulaskisBirthday     15.1      698.          0.0216  9.83e- 1
##  8 date_USDecorationMemorialDay  1.49       1.09        1.36    1.74e- 1
##  9 date_USElectionDay           -0.0445     1.11       -0.0402  9.68e- 1
## 10 date_USGoodFriday             0.453      0.713       0.636   5.25e- 1
## # … with 140 more rows
```
…
```r
model_fit <- flights_wflow %>%
  fit(train_data)
```

---

## Then, evaluate the model on the test data:

```r
predict(model_fit, test_data)
```

```
## # A tibble: 1,209 x 1
##    .pred_class
##    <fct>      
##  1 on_time    
##  2 on_time    
##  3 on_time    
##  4 on_time    
##  5 on_time    
##  6 on_time    
##  7 on_time    
##  8 on_time    
##  9 on_time    
## 10 on_time    
## # … with 1,199 more rows
```

---

```r
predict(model_fit, test_data, type = "prob")
```

```
## # A tibble: 1,209 x 2
##    .pred_late .pred_on_time
##         <dbl>         <dbl>
##  1     0.201          0.799
##  2     0.0150         0.985
##  3     0.156          0.844
##  4     0.213          0.787
##  5     0.142          0.858
##  6     0.166          0.834
##  7     0.106          0.894
##  8     0.313          0.687
##  9     0.0826         0.917
## 10     0.166          0.834
## # … with 1,199 more rows
```
…
## Comparing predictions to reality

```r
flights_pred <- test_data %>% 
        select(arr_delay, time_hour, flight) %>%
  bind_cols(
    predict(model_fit, test_data),
    predict(model_fit, test_data, type = "prob")
  )

flights_pred
```

```
## # A tibble: 1,209 x 6
##    arr_delay time_hour           flight .pred_class .pred_late .pred_on_time
##    <fct>     <dttm>               <int> <fct>            <dbl>         <dbl>
##  1 late      2013-07-07 16:00:00    881 on_time         0.201          0.799
##  2 on_time   2013-01-26 06:00:00   1415 on_time         0.0150         0.985
##  3 on_time   2013-12-02 10:00:00    925 on_time         0.156          0.844
##  4 on_time   2013-09-30 20:00:00   5956 on_time         0.213          0.787
##  5 on_time   2013-02-06 21:00:00   2144 on_time         0.142          0.858
##  6 on_time   2013-03-27 17:00:00   4479 on_time         0.166          0.834
##  7 on_time   2013-07-23 10:00:00    673 on_time         0.106          0.894
##  8 on_time   2013-03-05 16:00:00    917 on_time         0.313          0.687
##  9 on_time   2013-10-26 14:00:00   1171 on_time         0.0826         0.917
## 10 late      2013-11-01 08:00:00   4638 on_time         0.166          0.834
## # … with 1,199 more rows
```
…
